Class 01: An introductory data wrangling and description example
…
Today we will look at the voting history of countries in the United Nations General Assembly. We will be using data from the unvotes package. Additionally, we will make use of the tidyverse and lubridate packages.

library(unvotes)
library(tidyverse)
library(lubridate)

Data

We have three datasets we can work with: un_roll_calls, un_roll_call_issues, and un_votes. Each of these datasets contains a variable called rcid, the roll call id, which can be used to join them with each other.

The un_votes dataset provides information on the voting history of the United Nations General Assembly. It contains one row for each country-vote pair.

un_votes

## # A tibble: 738,764 x 4
##     rcid country                  country_code vote 
##    <int> <chr>                    <chr>        <fct>
##  1     3 United States of America US           yes  
##  2     3 Canada                   CA           no   
##  3     3 Cuba                     CU           yes  
##  4     3 Haiti                    HT           yes  
##  5     3 Dominican Republic       DO           yes  
##  6     3 Mexico                   MX           yes  
##  7     3 Guatemala                GT           yes  
##  8     3 Honduras                 HN           yes  
##  9     3 El Salvador              SV           yes  
## 10     3 Nicaragua                NI           yes  
## #  with 738,754 more rows
…
