Homework 4
…
pain <- pain %>%
  mutate(PainTolerance = as.factor(PainTolerance)) %>%
  pivot_longer(c(PI, PA, CI, CA), names_to = "Treatment", values_to = "PainRelief") %>%
  mutate(Codeine = as.factor(case_when(Treatment == "CI" ~ "True",
                                       Treatment == "CA" ~ "True",
                                       TRUE ~ "False")),
         Acupuncture = as.factor(case_when(Treatment == "PA" ~ "True",
                                           Treatment == "CA" ~ "True",
                                           TRUE ~ "False")))
pain

## # A tibble: 32 x 5
##    PainTolerance Treatment PainRelief Codeine Acupuncture
##    <fct>         <chr>          <dbl> <fct>   <fct>      
##  1 1             PI               0   False   False      
##  2 1             PA               0.6 False   True       
##  3 1             CI               0.5 True    False      
##  4 1             CA               1.2 True    True       
##  5 2             PI               0.3 False   False      
##  6 2             PA               0.7 False   True       
##  7 2             CI               0.6 True    False      
##  8 2             CA               1.3 True    True       
##  9 3             PI               0.4 False   False      
## 10 3             PA               0.8 False   True       
## #  with 22 more rows
…
