Class 08: Assignment
…
alcohol.long <- alcohol %>%
  pivot_longer(c(T0, T1, T2, T3, T4, T5, T6), names_to="Time", values_to="Reaction")

A blurb about pivot_longer(). There are essentially three input arguments into the pivot_longer() function:

First: a list of all the columns we want to pivot across  in this case, T0, T1, T2, T3, T4, T5, and T6.

Second: names_to - creates the name of a new variable whose values will correspond to the original names of the pivoted columns

Third: values_to - creates and names a new variable that will house the values originally stored in the pivoted columns

# peek at the pivoted data structure
alcohol.long

## # A tibble: 399 x 5
##    Subject Age   Alcohol Time  Reaction
##      <int> <chr> <fct>   <chr>    <dbl>
##  1       1 20s   Control T0        255.
##  2       1 20s   Control T1        255.
##  3       1 20s   Control T2        256.
##  4       1 20s   Control T3        255.
##  5       1 20s   Control T4        257 
##  6       1 20s   Control T5        256.
##  7       1 20s   Control T6        257 
##  8       2 30s   Control T0        250.
##  9       2 30s   Control T1        249.
## 10       2 30s   Control T2        249 
## #  with 389 more rows
…
